{
  "https://deno.land/std@0.93.0/_util/assert.ts": "2f868145a042a11d5ad0a3c748dcf580add8a0dbc0e876eaa0026303a5488f58",
  "https://deno.land/std@0.93.0/_util/has_own_property.ts": "f5edd94ed3f3c20c517d812045deb97977e18501c9b7105b5f5c11a31893d7a2",
  "https://deno.land/std@0.93.0/_util/os.ts": "e282950a0eaa96760c0cf11e7463e66babd15ec9157d4c9ed49cc0925686f6a7",
  "https://deno.land/std@0.93.0/async/deferred.ts": "624bef4b755b71394620508a0c234a93cb8020cbd1b04bfcdad41c174392cef6",
  "https://deno.land/std@0.93.0/async/delay.ts": "9de1d8d07d1927767ab7f82434b883f3d8294fb19cad819691a2ad81a728cf3d",
  "https://deno.land/std@0.93.0/async/mod.ts": "253b41c658d768613eacfb11caa0a9ca7148442f932018a45576f7f27554c853",
  "https://deno.land/std@0.93.0/async/mux_async_iterator.ts": "c405c4c1194f7600189aa81dfe243e165c27f36eaea88a301fa2a74ce974548b",
  "https://deno.land/std@0.93.0/async/pool.ts": "353ce4f91865da203a097aa6f33de8966340c91b6f4a055611c8c5d534afd12f",
  "https://deno.land/std@0.93.0/bytes/mod.ts": "1ae1ccfe98c4b979f12b015982c7444f81fcb921bea7aa215bf37d84f46e1e13",
  "https://deno.land/std@0.93.0/encoding/base64.ts": "eecae390f1f1d1cae6f6c6d732ede5276bf4b9cd29b1d281678c054dc5cc009e",
  "https://deno.land/std@0.93.0/encoding/hex.ts": "f952e0727bddb3b2fd2e6889d104eacbd62e92091f540ebd6459317a61932d9b",
  "https://deno.land/std@0.93.0/fmt/colors.ts": "db22b314a2ae9430ae7460ce005e0a7130e23ae1c999157e3bb77cf55800f7e4",
  "https://deno.land/std@0.93.0/hash/_wasm/hash.ts": "cb6ad1ab429f8ac9d6eae48f3286e08236d662e1a2e5cfd681ba1c0f17375895",
  "https://deno.land/std@0.93.0/hash/_wasm/wasm.js": "94b1b997ae6fb4e6d2156bcea8f79cfcd1e512a91252b08800a92071e5e84e1a",
  "https://deno.land/std@0.93.0/hash/hasher.ts": "57a9ec05dd48a9eceed319ac53463d9873490feea3832d58679df6eec51c176b",
  "https://deno.land/std@0.93.0/hash/mod.ts": "5d032bd34186cda2f8d17fc122d621430953a6030d4b3f11172004715e3e2441",
  "https://deno.land/std@0.93.0/hash/sha1.ts": "1cca324b4b253885a47f121adafcfac55b4cc96113e22b338e1db26f37a730b8",
  "https://deno.land/std@0.93.0/hash/sha256.ts": "2a06afd9c27942b87ffc8a93b3270065b5fe4ea144fe0939e5d050bfb86d40db",
  "https://deno.land/std@0.93.0/http/_io.ts": "a04ecb9ffef7963d2ccb332b3d5ba1e2efd6ff4d029c3df62833a43058955439",
  "https://deno.land/std@0.93.0/http/http_status.ts": "ebaa9bebfb8adc3d7b20c49e11037e4eefd79629ad80d81383933f4cdc91b3eb",
  "https://deno.land/std@0.93.0/http/server.ts": "f71555bcf2f8e94bef9617f747d7f2adce883187e197396f83c0975378e84bf5",
  "https://deno.land/std@0.93.0/io/buffer.ts": "2a92f02c1d8daaebaf13e5678ea5969c89f4fab533f687b9e7e86f49f11c3118",
  "https://deno.land/std@0.93.0/io/bufio.ts": "729ea49afacd27ed0687451c694752dcaa68250871d1c957ca886ef5d82c461f",
  "https://deno.land/std@0.93.0/io/ioutil.ts": "275fa440494df9b4b3aa656301ced2eeac533feec128b3a39b2b40f4cd957e42",
  "https://deno.land/std@0.93.0/io/streams.ts": "61c441d9d60eda8d5a3782517042536ce87ffd29a8bb72bdab4bdb5fe048e877",
  "https://deno.land/std@0.93.0/io/util.ts": "843ccf667ff291ba2315c2419a54b4e76dbc7c0f6c3152f640eac4dc954e3753",
  "https://deno.land/std@0.93.0/path/_constants.ts": "1247fee4a79b70c89f23499691ef169b41b6ccf01887a0abd131009c5581b853",
  "https://deno.land/std@0.93.0/path/_interface.ts": "1fa73b02aaa24867e481a48492b44f2598cd9dfa513c7b34001437007d3642e4",
  "https://deno.land/std@0.93.0/path/_util.ts": "2e06a3b9e79beaf62687196bd4b60a4c391d862cfa007a20fc3a39f778ba073b",
  "https://deno.land/std@0.93.0/path/common.ts": "eaf03d08b569e8a87e674e4e265e099f237472b6fd135b3cbeae5827035ea14a",
  "https://deno.land/std@0.93.0/path/glob.ts": "4a524c1c9da3e79a9fdabdc6e850cd9e41bdf31e442856ffa19c5b123268ca95",
  "https://deno.land/std@0.93.0/path/mod.ts": "4465dc494f271b02569edbb4a18d727063b5dbd6ed84283ff906260970a15d12",
  "https://deno.land/std@0.93.0/path/posix.ts": "f56c3c99feb47f30a40ce9d252ef6f00296fa7c0fcb6dd81211bdb3b8b99ca3b",
  "https://deno.land/std@0.93.0/path/separator.ts": "8fdcf289b1b76fd726a508f57d3370ca029ae6976fcde5044007f062e643ff1c",
  "https://deno.land/std@0.93.0/path/win32.ts": "77f7b3604e0de40f3a7c698e8a79e7f601dc187035a1c21cb1e596666ce112f8",
  "https://deno.land/std@0.93.0/testing/_diff.ts": "961eaf6d9f5b0a8556c9d835bbc6fa74f5addd7d3b02728ba7936ff93364f7a3",
  "https://deno.land/std@0.93.0/testing/asserts.ts": "9ae4f282a1164efa53f566f15b09319e6de7eea0a4ed63e8db7faf8213f05d8c",
  "https://deno.land/std@0.93.0/textproto/mod.ts": "1c89b39a079dd158893ab2e9ff79391c66049433d6ca82da7d64b32280570d51",
  "https://deno.land/std@0.93.0/ws/mod.ts": "561d12475c04ed91b109e5340ca7f2cfe0421613792586c3d8a4c825ad722f59",
  "https://deno.land/x/media_types@v2.8.1/db.ts": "22db9bd6eb24934105098e9fce27d2746ef3861cd2668edef749c83c60acd60b",
  "https://deno.land/x/media_types@v2.8.1/deps.ts": "971505827c247d612cb8ad3b2e658d2a2383a3540b8bd4482d94b101368d1a2f",
  "https://deno.land/x/media_types@v2.8.1/mod.ts": "d63583b978d32eff8b76e1ae5d83cba2fb27baa90cc1bcb0ad15a06122ea8c19",
  "https://deno.land/x/oak@v7.2.0/application.ts": "8d758125cf006fa48d130c88ace519b59f7417d721da735be16316fbfec4f69c",
  "https://deno.land/x/oak@v7.2.0/async_iterable_reader.ts": "f4447a8d7b5d955ca1923e439b075187d0a3de43b4491f3cee2ee06a7a91179b",
  "https://deno.land/x/oak@v7.2.0/body.ts": "e83af603664dcb1c4a012a273797e7654c1117e83a3c96181008b92c2f0fffba",
  "https://deno.land/x/oak@v7.2.0/buf_reader.ts": "0816c2630322a092a316ad8d77ad6eab0823ac68ede370637e1bc09f3d0b1e89",
  "https://deno.land/x/oak@v7.2.0/content_disposition.ts": "9603abf371d2b29b083232ae207d3aac204d9d4f140e4fb41f6e9a3940fd3048",
  "https://deno.land/x/oak@v7.2.0/context.ts": "bd83ecded95322152e2898f9ba9a01385fba8ce15320d30e7e66cd3ac2ff5f27",
  "https://deno.land/x/oak@v7.2.0/cookies.ts": "9f416fd427f664935d9a02405834612187f9234fe838193c9ab8a4c47a64c8ac",
  "https://deno.land/x/oak@v7.2.0/deps.ts": "9e130ada4d829da2396247f81886840e9659a19fd56f6a27cb3f207dfa62896f",
  "https://deno.land/x/oak@v7.2.0/etag.ts": "2fd5a5fe5f5bd5daa6074e71706ccec98b334932339547e8387c538f4694dfb8",
  "https://deno.land/x/oak@v7.2.0/headers.ts": "50b809d5f311837f49344f6622bfbe24c57e64cd788bfb8d66ac826d304e6c3a",
  "https://deno.land/x/oak@v7.2.0/helpers.ts": "a7a5cf4beb42eee156fab6f6b637e6e9942d976aef39c483eb8bc8eb86c389b9",
  "https://deno.land/x/oak@v7.2.0/httpError.ts": "33ebe66afd1d5381146836ed9e24010c5c0a2d47b93a8e93a99033ef1fb04840",
  "https://deno.land/x/oak@v7.2.0/http_server_native.ts": "997fe067127d4627585d29a437df7ab3eba3e506623eba93ff3cfd1b45091707",
  "https://deno.land/x/oak@v7.2.0/http_server_std.ts": "0c97323f22e844723c17b2ffde1dfaafd2edc5acb04b70974a31150a6835c0c4",
  "https://deno.land/x/oak@v7.2.0/isMediaType.ts": "e7457f8c14245a7bb9a3a48000d50e112bb6fcafeab8fd7bcff16363a0cd8687",
  "https://deno.land/x/oak@v7.2.0/keyStack.ts": "cfc1bc867da0fc1b01ab8a21accd85cb3a092e47eab09ae7114429cc1a09cd4a",
  "https://deno.land/x/oak@v7.2.0/mediaTyper.ts": "042b853fc8e9c3f6c628dd389e03ef481552bf07242efc3f8a1af042102a6105",
  "https://deno.land/x/oak@v7.2.0/middleware.ts": "8784b93a8b6371921006497163b6f5dde600c4321099561b1f5d040c93899098",
  "https://deno.land/x/oak@v7.2.0/mod.ts": "bcdd7181ecaa7e0e429a0fc37abbd01f8485d282fa3316b893902ac54bebadd0",
  "https://deno.land/x/oak@v7.2.0/multipart.ts": "9097b3664bca195770edf9504af52ddd7f7e52fe98f4df929789d430a78f5b5f",
  "https://deno.land/x/oak@v7.2.0/negotiation/charset.ts": "b4c2e0c49dd5122f130f95bf29508448d983c424801b5bc304b00288b5ae3195",
  "https://deno.land/x/oak@v7.2.0/negotiation/common.ts": "f54d599d37408005f8c565d0f6505de51fed31feaa3654a7758e2359c006b02c",
  "https://deno.land/x/oak@v7.2.0/negotiation/encoding.ts": "60eb0fc3df57cc39eaa739e0e9e2cda6c20b3aa429d1a0108f503065f5709bbe",
  "https://deno.land/x/oak@v7.2.0/negotiation/language.ts": "62ef13ea3146538dd52a4666611bd423ebb9a6438e7312398e17a4d16dbafb51",
  "https://deno.land/x/oak@v7.2.0/negotiation/mediaType.ts": "7e25cc34600beea3bf0b0879ff1783c752260fcb517dffea2e122830c36e8451",
  "https://deno.land/x/oak@v7.2.0/request.ts": "44f01cded0f854ac19c12a03a6c574e20167ca2c6f2228d0725150cfa137f4d1",
  "https://deno.land/x/oak@v7.2.0/response.ts": "63258458fae7364ab8b9bc7585d83b6cabff8071ef4bd7f0d92228c83951cb91",
  "https://deno.land/x/oak@v7.2.0/router.ts": "3326c291fa4883751980b233e5153f632e784780bb07ace657e10c7e50194c1c",
  "https://deno.land/x/oak@v7.2.0/send.ts": "e4022b70c5f3c27691d50449a344231f7d23bd95fbc5d8a9074dc912f561a342",
  "https://deno.land/x/oak@v7.2.0/server_sent_event.ts": "c036f74d1d067fe5a77b03d5b72f5ce35f00e77b14583e2247879181cfea46f7",
  "https://deno.land/x/oak@v7.2.0/structured_clone.ts": "dc32064b659fbdb695fed5e1a38d050639d1642b49c10bbe20dca7eb80b06151",
  "https://deno.land/x/oak@v7.2.0/tssCompare.ts": "814361c23298a7a2d0d573ae85902cd85c761a089b2d5edf4e2be4652505c80c",
  "https://deno.land/x/oak@v7.2.0/types.d.ts": "9d960a9080c21c8d076dc9f5246db760ed2d8baf0785db5dd467689fca399929",
  "https://deno.land/x/oak@v7.2.0/util.ts": "db9c18cdc8ee5fbf98511609acb5acb06bc402a3699dc716725479b4229b15ec",
  "https://deno.land/x/path_to_regexp@v6.2.0/index.ts": "e94c04a44bbecac99ff2db2d831afe98b423e627b775cb57fc7935f848c64c51"
}